{
    "1712": {
        "character": {
            "id": "116745468100214793",
            "name": "C",
            "level": 1,
            "dead": true,
            "maxHealth": 100,
            "health": -2,
            "stateId": 2,
            "previousStateId": 1,
            "battleId": 1712,
            "gold": 100,
            "weapon": null,
            "helmet": null,
            "upper": null,
            "lower": null,
            "gloves": null,
            "boots": null
        },
        "info": {
            "respawnable": false,
            "defeated": false,
            "avoidability": 0,
            "likelihood": 100,
            "text": "In the darkness emerges a large Hobgoblin, accompanied by 2 smaller Goblins.",
            "enemyInfo": [
                {
                    "id": 1,
                    "amount": 1
                },
                {
                    "id": 0,
                    "amount": 2
                }
            ],
            "enemies": [
                {
                    "id": 1,
                    "name": "Hobgoblin",
                    "maxHealth": 50,
                    "health": 50,
                    "minDamage": 3,
                    "maxDamage": 15
                },
                {
                    "id": 0,
                    "name": "Goblin",
                    "maxHealth": 20,
                    "health": 20,
                    "minDamage": 1,
                    "maxDamage": 10
                },
                {
                    "id": 0,
                    "name": "Goblin",
                    "maxHealth": 20,
                    "health": 20,
                    "minDamage": 1,
                    "maxDamage": 10
                }
            ]
        }
    },
    "2075": {
        "character": {
            "id": "116745468100214793",
            "name": "C",
            "level": 1,
            "dead": false,
            "maxHealth": 100,
            "health": 88,
            "stateId": 2,
            "previousStateId": 1,
            "battleId": 2075,
            "gold": 100,
            "weapon": null,
            "helmet": null,
            "upper": null,
            "lower": null,
            "gloves": null,
            "boots": null
        },
        "info": {
            "respawnable": false,
            "defeated": false,
            "avoidability": 0,
            "likelihood": 100,
            "text": "In the darkness emerges a large Hobgoblin, accompanied by 2 smaller Goblins.",
            "enemyInfo": [
                {
                    "id": 1,
                    "amount": 1
                },
                {
                    "id": 0,
                    "amount": 2
                }
            ],
            "enemies": [
                {
                    "id": 1,
                    "name": "Hobgoblin",
                    "maxHealth": 50,
                    "health": 49,
                    "minDamage": 3,
                    "maxDamage": 15
                },
                {
                    "id": 0,
                    "name": "Goblin",
                    "maxHealth": 20,
                    "health": 17,
                    "minDamage": 1,
                    "maxDamage": 10
                },
                {
                    "id": 0,
                    "name": "Goblin",
                    "maxHealth": 20,
                    "health": 19,
                    "minDamage": 1,
                    "maxDamage": 10
                }
            ]
        }
    },
    "2536": {
        "character": {
            "id": "116745468100214793",
            "name": "C",
            "level": 1,
            "dead": true,
            "maxHealth": 100,
            "health": -2,
            "stateId": 2,
            "previousStateId": 1,
            "battleId": 2536,
            "gold": 100,
            "weapon": null,
            "helmet": null,
            "upper": null,
            "lower": null,
            "gloves": null,
            "boots": null
        },
        "info": {
            "respawnable": false,
            "defeated": false,
            "avoidability": 0,
            "likelihood": 100,
            "text": "In the darkness emerges a large Hobgoblin, accompanied by 2 smaller Goblins.",
            "enemyInfo": [
                {
                    "id": 1,
                    "amount": 1
                },
                {
                    "id": 0,
                    "amount": 2
                }
            ],
            "enemies": [
                {
                    "id": 1,
                    "name": "Hobgoblin",
                    "maxHealth": 50,
                    "health": 46,
                    "minDamage": 3,
                    "maxDamage": 15
                },
                {
                    "id": 0,
                    "name": "Goblin",
                    "maxHealth": 20,
                    "health": 13,
                    "minDamage": 1,
                    "maxDamage": 10
                },
                {
                    "id": 0,
                    "name": "Goblin",
                    "maxHealth": 20,
                    "health": 13,
                    "minDamage": 1,
                    "maxDamage": 10
                }
            ]
        }
    },
    "3138": {
        "character": {
            "id": "116745468100214793",
            "name": "C",
            "level": 1,
            "maxHealth": 100,
            "health": 100,
            "stateId": 1,
            "previousStateId": 2,
            "battleId": 3756,
            "gold": 100,
            "weapon": null,
            "helmet": null,
            "upper": null,
            "lower": null,
            "gloves": null,
            "boots": null,
            "previousState": 1
        },
        "info": {
            "respawnable": false,
            "defeated": false,
            "avoidability": 0,
            "likelihood": 100,
            "text": "In the darkness emerges a large Hobgoblin, accompanied by 2 smaller Goblins.",
            "enemyInfo": [
                {
                    "id": 1,
                    "amount": 1
                },
                {
                    "id": 0,
                    "amount": 2
                }
            ],
            "enemies": [
                {
                    "id": 1,
                    "name": "Hobgoblin",
                    "maxHealth": 50,
                    "health": 50,
                    "minDamage": 3,
                    "maxDamage": 15
                },
                {
                    "id": 0,
                    "name": "Goblin",
                    "maxHealth": 20,
                    "health": 20,
                    "minDamage": 1,
                    "maxDamage": 10
                },
                {
                    "id": 0,
                    "name": "Goblin",
                    "maxHealth": 20,
                    "health": 20,
                    "minDamage": 1,
                    "maxDamage": 10
                }
            ]
        }
    },
    "3756": {
        "character": {
            "id": "116745468100214793",
            "name": "C",
            "level": 1,
            "maxHealth": 100,
            "health": 100,
            "stateId": 1,
            "previousStateId": 2,
            "battleId": 3756,
            "gold": 100,
            "weapon": null,
            "helmet": null,
            "upper": null,
            "lower": null,
            "gloves": null,
            "boots": null,
            "previousState": 1
        },
        "info": {
            "respawnable": false,
            "defeated": false,
            "avoidability": 0,
            "likelihood": 100,
            "text": "In the darkness emerges a large Hobgoblin, accompanied by 2 smaller Goblins.",
            "enemyInfo": [
                {
                    "id": 1,
                    "amount": 1
                },
                {
                    "id": 0,
                    "amount": 2
                }
            ],
            "enemies": [
                {
                    "id": 1,
                    "name": "Hobgoblin",
                    "maxHealth": 50,
                    "health": 50,
                    "minDamage": 3,
                    "maxDamage": 15
                },
                {
                    "id": 0,
                    "name": "Goblin",
                    "maxHealth": 20,
                    "health": 20,
                    "minDamage": 1,
                    "maxDamage": 10
                },
                {
                    "id": 0,
                    "name": "Goblin",
                    "maxHealth": 20,
                    "health": 20,
                    "minDamage": 1,
                    "maxDamage": 10
                }
            ]
        }
    },
    "4924": {
        "character": {
            "id": "116745468100214793",
            "name": "C",
            "level": 1,
            "maxHealth": 100,
            "health": 86,
            "stateId": 2,
            "previousStateId": 1,
            "battleId": 4924,
            "gold": 0,
            "weapon": {
                "type": 0,
                "id": 1,
                "name": "Steel Sword",
                "cost": 100,
                "minDamage": 5,
                "maxDamage": 15,
                "defense": 0
            },
            "helmet": null,
            "upper": null,
            "lower": null,
            "gloves": null,
            "boots": null,
            "previousState": 1
        },
        "info": {
            "respawnable": false,
            "defeated": false,
            "avoidability": 0,
            "likelihood": 100,
            "text": "In the darkness emerges a large Hobgoblin, accompanied by 2 smaller Goblins.",
            "enemyInfo": [
                {
                    "id": 1,
                    "amount": 1
                },
                {
                    "id": 0,
                    "amount": 2
                }
            ],
            "enemies": [
                {
                    "id": 1,
                    "name": "Hobgoblin",
                    "maxHealth": 50,
                    "health": 35,
                    "minDamage": 3,
                    "maxDamage": 15
                },
                {
                    "id": 0,
                    "name": "Goblin",
                    "maxHealth": 20,
                    "health": 11,
                    "minDamage": 1,
                    "maxDamage": 10
                },
                {
                    "id": 0,
                    "name": "Goblin",
                    "maxHealth": 20,
                    "health": 11,
                    "minDamage": 1,
                    "maxDamage": 10
                }
            ]
        }
    },
    "5071": {
        "character": {
            "id": "116745468100214793",
            "name": "C",
            "level": 1,
            "maxHealth": 100,
            "health": 100,
            "stateId": 1,
            "previousState": 0,
            "battleId": 5071,
            "gold": 100,
            "weapon": null,
            "helmet": null,
            "upper": null,
            "lower": null,
            "gloves": null,
            "boots": null
        },
        "info": {
            "respawnable": false,
            "defeated": false,
            "avoidability": 0,
            "likelihood": 100,
            "text": "In the darkness emerges a large Hobgoblin, accompanied by 2 smaller Goblins.",
            "enemyInfo": [
                {
                    "id": 1,
                    "amount": 1
                },
                {
                    "id": 0,
                    "amount": 2
                }
            ],
            "enemies": [
                {
                    "id": 1,
                    "name": "Hobgoblin",
                    "maxHealth": 50,
                    "health": 50,
                    "minDamage": 3,
                    "maxDamage": 15
                },
                {
                    "id": 0,
                    "name": "Goblin",
                    "maxHealth": 20,
                    "health": 20,
                    "minDamage": 1,
                    "maxDamage": 10
                },
                {
                    "id": 0,
                    "name": "Goblin",
                    "maxHealth": 20,
                    "health": 20,
                    "minDamage": 1,
                    "maxDamage": 10
                }
            ]
        }
    },
    "6489": {
        "character": {
            "id": "116745468100214793",
            "name": "C",
            "level": 1,
            "maxHealth": 100,
            "health": 100,
            "stateId": 1,
            "previousStateId": 0,
            "battleId": 6489,
            "gold": 100,
            "weapon": null,
            "helmet": null,
            "upper": null,
            "lower": null,
            "gloves": null,
            "boots": null
        },
        "info": {
            "respawnable": false,
            "defeated": false,
            "avoidability": 0,
            "likelihood": 100,
            "text": "In the darkness emerges a large Hobgoblin, accompanied by 2 smaller Goblins.",
            "enemyInfo": [
                {
                    "id": 1,
                    "amount": 1
                },
                {
                    "id": 0,
                    "amount": 2
                }
            ],
            "enemies": [
                {
                    "id": 1,
                    "name": "Hobgoblin",
                    "maxHealth": 50,
                    "health": 50,
                    "minDamage": 3,
                    "maxDamage": 15
                },
                {
                    "id": 0,
                    "name": "Goblin",
                    "maxHealth": 20,
                    "health": 20,
                    "minDamage": 1,
                    "maxDamage": 10
                },
                {
                    "id": 0,
                    "name": "Goblin",
                    "maxHealth": 20,
                    "health": 20,
                    "minDamage": 1,
                    "maxDamage": 10
                }
            ]
        }
    },
    "7405": {
        "character": {
            "id": "116745468100214793",
            "name": "C",
            "level": 1,
            "maxHealth": 100,
            "health": 100,
            "stateId": 1,
            "previousStateId": 0,
            "battleId": 7470,
            "gold": 100,
            "weapon": null,
            "helmet": null,
            "upper": null,
            "lower": null,
            "gloves": null,
            "boots": null,
            "previousState": 0
        },
        "info": {
            "respawnable": false,
            "defeated": false,
            "avoidability": 0,
            "likelihood": 100,
            "text": "In the darkness emerges a large Hobgoblin, accompanied by 2 smaller Goblins.",
            "enemyInfo": [
                {
                    "id": 1,
                    "amount": 1
                },
                {
                    "id": 0,
                    "amount": 2
                }
            ],
            "enemies": [
                {
                    "id": 1,
                    "name": "Hobgoblin",
                    "maxHealth": 50,
                    "health": 50,
                    "minDamage": 3,
                    "maxDamage": 15
                },
                {
                    "id": 0,
                    "name": "Goblin",
                    "maxHealth": 20,
                    "health": 20,
                    "minDamage": 1,
                    "maxDamage": 10
                },
                {
                    "id": 0,
                    "name": "Goblin",
                    "maxHealth": 20,
                    "health": 20,
                    "minDamage": 1,
                    "maxDamage": 10
                }
            ]
        }
    },
    "7433": {
        "character": {
            "id": "116745468100214793",
            "name": "C",
            "level": 1,
            "maxHealth": 100,
            "health": 100,
            "stateId": 1,
            "previousStateId": 0,
            "battleId": 7433,
            "gold": 100,
            "weapon": null,
            "helmet": null,
            "upper": null,
            "lower": null,
            "gloves": null,
            "boots": null
        },
        "info": {
            "respawnable": false,
            "defeated": false,
            "avoidability": 0,
            "likelihood": 100,
            "text": "In the darkness emerges a large Hobgoblin, accompanied by 2 smaller Goblins.",
            "enemyInfo": [
                {
                    "id": 1,
                    "amount": 1
                },
                {
                    "id": 0,
                    "amount": 2
                }
            ],
            "enemies": [
                {
                    "id": 1,
                    "name": "Hobgoblin",
                    "maxHealth": 50,
                    "health": 50,
                    "minDamage": 3,
                    "maxDamage": 15
                },
                {
                    "id": 0,
                    "name": "Goblin",
                    "maxHealth": 20,
                    "health": 20,
                    "minDamage": 1,
                    "maxDamage": 10
                },
                {
                    "id": 0,
                    "name": "Goblin",
                    "maxHealth": 20,
                    "health": 20,
                    "minDamage": 1,
                    "maxDamage": 10
                }
            ]
        }
    },
    "7470": {
        "character": {
            "id": "116745468100214793",
            "name": "C",
            "level": 1,
            "maxHealth": 100,
            "health": 100,
            "stateId": 1,
            "previousStateId": 0,
            "battleId": 7470,
            "gold": 100,
            "weapon": null,
            "helmet": null,
            "upper": null,
            "lower": null,
            "gloves": null,
            "boots": null,
            "previousState": 0
        },
        "info": {
            "respawnable": false,
            "defeated": false,
            "avoidability": 0,
            "likelihood": 100,
            "text": "In the darkness emerges a large Hobgoblin, accompanied by 2 smaller Goblins.",
            "enemyInfo": [
                {
                    "id": 1,
                    "amount": 1
                },
                {
                    "id": 0,
                    "amount": 2
                }
            ],
            "enemies": [
                {
                    "id": 1,
                    "name": "Hobgoblin",
                    "maxHealth": 50,
                    "health": 50,
                    "minDamage": 3,
                    "maxDamage": 15
                },
                {
                    "id": 0,
                    "name": "Goblin",
                    "maxHealth": 20,
                    "health": 20,
                    "minDamage": 1,
                    "maxDamage": 10
                },
                {
                    "id": 0,
                    "name": "Goblin",
                    "maxHealth": 20,
                    "health": 20,
                    "minDamage": 1,
                    "maxDamage": 10
                }
            ]
        }
    },
    "8518": {
        "character": {
            "id": "116745468100214793",
            "name": "C",
            "level": 1,
            "maxHealth": 100,
            "health": 86,
            "stateId": 2,
            "previousStateId": 1,
            "battleId": 4924,
            "gold": 0,
            "weapon": {
                "type": 0,
                "id": 1,
                "name": "Steel Sword",
                "cost": 100,
                "minDamage": 5,
                "maxDamage": 15,
                "defense": 0
            },
            "helmet": null,
            "upper": null,
            "lower": null,
            "gloves": null,
            "boots": null,
            "previousState": 1
        },
        "info": {
            "respawnable": false,
            "defeated": false,
            "avoidability": 0,
            "likelihood": 100,
            "text": "In the darkness emerges a large Hobgoblin, accompanied by 2 smaller Goblins.",
            "enemyInfo": [
                {
                    "id": 1,
                    "amount": 1
                },
                {
                    "id": 0,
                    "amount": 2
                }
            ],
            "enemies": [
                {
                    "id": 1,
                    "name": "Hobgoblin",
                    "maxHealth": 50,
                    "health": 35,
                    "minDamage": 3,
                    "maxDamage": 15
                },
                {
                    "id": 0,
                    "name": "Goblin",
                    "maxHealth": 20,
                    "health": 11,
                    "minDamage": 1,
                    "maxDamage": 10
                },
                {
                    "id": 0,
                    "name": "Goblin",
                    "maxHealth": 20,
                    "health": 11,
                    "minDamage": 1,
                    "maxDamage": 10
                }
            ]
        }
    },
    "9763": {
        "character": {
            "id": "116745468100214793",
            "name": "C",
            "level": 1,
            "maxHealth": 100,
            "health": 100,
            "stateId": 1,
            "previousStateId": 0,
            "battleId": 9763,
            "gold": 100,
            "weapon": null,
            "helmet": null,
            "upper": null,
            "lower": null,
            "gloves": null,
            "boots": null
        },
        "info": {
            "respawnable": false,
            "defeated": false,
            "avoidability": 0,
            "likelihood": 100,
            "text": "In the darkness emerges a large Hobgoblin, accompanied by 2 smaller Goblins.",
            "enemyInfo": [
                {
                    "id": 1,
                    "amount": 1
                },
                {
                    "id": 0,
                    "amount": 2
                }
            ],
            "enemies": [
                {
                    "id": 1,
                    "name": "Hobgoblin",
                    "maxHealth": 50,
                    "health": 50,
                    "minDamage": 3,
                    "maxDamage": 15
                },
                {
                    "id": 0,
                    "name": "Goblin",
                    "maxHealth": 20,
                    "health": 20,
                    "minDamage": 1,
                    "maxDamage": 10
                },
                {
                    "id": 0,
                    "name": "Goblin",
                    "maxHealth": 20,
                    "health": 20,
                    "minDamage": 1,
                    "maxDamage": 10
                }
            ]
        }
    },
    "10241": {
        "character": {
            "id": "116745468100214793",
            "name": "C",
            "level": 1,
            "dead": false,
            "maxHealth": 100,
            "health": 100,
            "stateId": 1,
            "previousStateId": 0,
            "battleId": 10241,
            "gold": 100,
            "weapon": null,
            "helmet": null,
            "upper": null,
            "lower": null,
            "gloves": null,
            "boots": null
        },
        "info": {
            "respawnable": false,
            "defeated": false,
            "avoidability": 0,
            "likelihood": 100,
            "text": "In the darkness emerges a large Hobgoblin, accompanied by 2 smaller Goblins.",
            "enemyInfo": [
                {
                    "id": 1,
                    "amount": 1
                },
                {
                    "id": 0,
                    "amount": 2
                }
            ],
            "enemies": [
                {
                    "id": 1,
                    "name": "Hobgoblin",
                    "maxHealth": 50,
                    "health": 50,
                    "minDamage": 3,
                    "maxDamage": 15
                },
                {
                    "id": 0,
                    "name": "Goblin",
                    "maxHealth": 20,
                    "health": 20,
                    "minDamage": 1,
                    "maxDamage": 10
                },
                {
                    "id": 0,
                    "name": "Goblin",
                    "maxHealth": 20,
                    "health": 20,
                    "minDamage": 1,
                    "maxDamage": 10
                }
            ]
        }
    },
    "10403": {
        "character": {
            "id": "116745468100214793",
            "name": "C",
            "level": 1,
            "maxHealth": 100,
            "health": 100,
            "stateId": 1,
            "previousStateId": 0,
            "battleId": 10403,
            "gold": 100,
            "weapon": null,
            "helmet": null,
            "upper": null,
            "lower": null,
            "gloves": null,
            "boots": null,
            "previousState": 1
        },
        "info": {
            "respawnable": false,
            "defeated": false,
            "avoidability": 0,
            "likelihood": 100,
            "text": "In the darkness emerges a large Hobgoblin, accompanied by 2 smaller Goblins.",
            "enemyInfo": [
                {
                    "id": 1,
                    "amount": 1
                },
                {
                    "id": 0,
                    "amount": 2
                }
            ],
            "enemies": [
                {
                    "id": 1,
                    "name": "Hobgoblin",
                    "maxHealth": 50,
                    "health": 50,
                    "minDamage": 3,
                    "maxDamage": 15
                },
                {
                    "id": 0,
                    "name": "Goblin",
                    "maxHealth": 20,
                    "health": 20,
                    "minDamage": 1,
                    "maxDamage": 10
                },
                {
                    "id": 0,
                    "name": "Goblin",
                    "maxHealth": 20,
                    "health": 20,
                    "minDamage": 1,
                    "maxDamage": 10
                }
            ]
        }
    }
}